{
	"content":
	[
		{"name":"aaaaa","country":"bbb","city":"ccc","adress":"xxx","director":"sss","email":"aaaaa","phoneOfDirector":"0382865037","phoneOrders":"0382865037"},
		{"name":"aaaaa","country":"bbb","city":"ccc","adress":"xxx","director":"sss","email":"aaaaa","phoneOfDirector":"0382865037","phoneOrders":"0382865037"},
		{"name":"aaaaa","country":"bbb","city":"ccc","adress":"xxx","director":"sss","email":"aaaaa","phoneOfDirector":"0382865037","phoneOrders":"0382865037"},
		{"name":"aaaaa","country":"bbb","city":"ccc","adress":"xxx","director":"sss","email":"aaaaa","phoneOfDirector":"0382865037","phoneOrders":"0382865037"},
		{"name":"aaaaa","country":"bbb","city":"ccc","adress":"xxx","director":"sss","email":"aaaaa","phoneOfDirector":"0382865037","phoneOrders":"0382865037"},
		{"name":"aaaaa","country":"bbb","city":"ccc","adress":"xxx","director":"sss","email":"aaaaa","phoneOfDirector":"0382865037","phoneOrders":"0382865037"},
		{"name":"aaaaa","country":"bbb","city":"ccc","adress":"xxx","director":"sss","email":"aaaaa","phoneOfDirector":"0382865037","phoneOrders":"0382865037"},
		{"name":"aaaaa","country":"bbb","city":"ccc","adress":"xxx","director":"sss","email":"aaaaa","phoneOfDirector":"0382865037","phoneOrders":"0382865037"},
		{"name":"aaaaa","country":"bbb","city":"ccc","adress":"xxx","director":"sss","email":"aaaaa","phoneOfDirector":"0382865037","phoneOrders":"0382865037"},
		{"name":"aaaaa","country":"bbb","city":"ccc","adress":"xxx","director":"sss","email":"aaaaa","phoneOfDirector":"0382865037","phoneOrders":"0382865037"}
	],
	"pageMetadata": {
		"size": 10,
		"totalElements": 40,
		"totalPages": 2,
		"number": 0
	}
}