{
	"content":
	[
		{"fullName":"aaaaa","position":"bbb","birthday":"ccc","age":"xxx","sex":"sss","experience":"aaaaa","previousPosition":"0382865037","date":"0382865037"},
		{"fullName":"aaaaa","position":"bbb","birthday":"ccc","age":"xxx","sex":"sss","experience":"aaaaa","previousPosition":"0382865037","date":"0382865037"},
		{"fullName":"aaaaa","position":"bbb","birthday":"ccc","age":"xxx","sex":"sss","experience":"aaaaa","previousPosition":"0382865037","date":"0382865037"},
		{"fullName":"aaaaa","position":"bbb","birthday":"ccc","age":"xxx","sex":"sss","experience":"aaaaa","previousPosition":"0382865037","date":"0382865037"},
		{"fullName":"aaaaa","position":"bbb","birthday":"ccc","age":"xxx","sex":"sss","experience":"aaaaa","previousPosition":"0382865037","date":"0382865037"},
		{"fullName":"aaaaa","position":"bbb","birthday":"ccc","age":"xxx","sex":"sss","experience":"aaaaa","previousPosition":"0382865037","date":"0382865037"},
		{"fullName":"aaaaa","position":"bbb","birthday":"ccc","age":"xxx","sex":"sss","experience":"aaaaa","previousPosition":"0382865037","date":"0382865037"},
		{"fullName":"aaaaa","position":"bbb","birthday":"ccc","age":"xxx","sex":"sss","experience":"aaaaa","previousPosition":"0382865037","date":"0382865037"},
		{"fullName":"aaaaa","position":"bbb","birthday":"ccc","age":"xxx","sex":"sss","experience":"aaaaa","previousPosition":"0382865037","date":"0382865037"},
		{"fullName":"aaaaa","position":"bbb","birthday":"ccc","age":"xxx","sex":"sss","experience":"aaaaa","previousPosition":"0382865037","date":"0382865037"}

	],
	"pageMetadata": {
		"size": 10,
		"totalElements": 40,
		"totalPages": 2,
		"number": 0
	}
}